{
        "name": "daniyalCustomer",
        "activeSuppliers": [
            "daniyalSupplier",
            "uzairSupplier",
            "NISA"
        ],
        "schedule": {
            "running": false,
            "lastIterationStatus": "never",
            "interval": 120,
            "enabled": false,
            "lastIteration": -1,
            "nextIteration": 0
        },
        "supplierConfig": [
            {
                "ftpUsername": "bestway",
                "KeyLocationType": "s3",
                "ftpPassword": "xxx",
                "name": "daniyalSupplier",
                "KeyLocation": "cc-supplierlink-maps/credentials/subsetCustomer/id_rsa",
                "sftpPrefix": ".",
                "sftpUsername": "subsetCustomer_BESTWAY"
            },
            {
                "ftpUsername": "bestway",
                "KeyLocationType": "s3",
                "ftpPassword": "xxx",
                "name": "uzairSupplier",
                "KeyLocation": "cc-supplierlink-maps/credentials/subsetCustomer/id_rsa",
                "sftpPrefix": ".",
                "sftpUsername": "subsetCustomer_BESTWAY"
            },
            {
                "ftpUsername": "xxx",
                "KeyLocationType": "s3",
                "ftpPassword": "xxx",
                "name": "NISA",
                "KeyLocation": "cc-supplierlink-maps/credentials/subsetCustomer/id_rsa",
                "sftpPrefix": ".",
                "sftpUsername": "subsetCustomer_NISA"
            }
        ],
        "id": "c002",
        "type": "customer"
}